{
    "$schema": "https://schemas.wp.org/trunk/block.json",
    "apiVersion": 2,
    "name": "site/post",
    "title": "Post",
    "description": "Display a post",
    "icon": "admin-post",
    "keywords": [
        "featured",
        "post"
    ],
    "category": "widgets",
    "textdomain": "site",
    "supports": {
        "anchor": true,
        "className": true,
        "html": false
    },
    "acf": {
        "mode": "preview",
        "renderTemplate": "block.php"
    },
    "styles": [
        {
            "name": "cover",
            "label": "Cover"
        }
    ]
}
