<?xml version="1.0" encoding="utf-8"?>
<!-- Generator: Adobe Illustrator 16.0.0, SVG Export Plug-In . SVG Version: 6.00 Build 0)  -->
<!DOCTYPE svg PUBLIC "-//W3C//DTD SVG 1.1//EN" "http://www.w3.org/Graphics/SVG/1.1/DTD/svg11.dtd">
<svg version="1.1" id="Layer_1" xmlns="http://www.w3.org/2000/svg" xmlns:xlink="http://www.w3.org/1999/xlink" x="0px" y="0px"
	 width="360px" height="360px" viewBox="0 0 360 360" enable-background="new 0 0 360 360" xml:space="preserve">
<path d="M36,36v288h288V36H36z M123.232,212.386c-2.576-1.898-3.115-5.531-1.211-8.095l53.521-72.34
	c1.903-2.576,5.534-3.12,8.104-1.211c2.569,1.903,3.113,5.533,1.215,8.1l-53.532,72.343
	C129.431,213.75,125.801,214.284,123.232,212.386z M132.604,229.266c-2.576-1.903-3.112-5.531-1.211-8.1l53.529-72.34
	c1.898-2.573,5.531-3.11,8.1-1.211c2.569,1.908,3.113,5.533,1.21,8.1l-53.527,72.343
	C138.806,230.625,135.176,231.169,132.604,229.266z M166.983,212.386c-2.574-1.898-3.115-5.531-1.214-8.095l53.526-72.34
	c1.908-2.576,5.531-3.12,8.105-1.211c2.568,1.903,3.112,5.533,1.209,8.1l-53.526,72.343
	C173.18,213.75,169.554,214.294,166.983,212.386z M237.984,155.714l-53.526,72.343c-1.903,2.568-5.529,3.112-8.105,1.209
	c-2.569-1.903-3.11-5.531-1.209-8.1l53.526-72.34c1.898-2.573,5.527-3.11,8.096-1.211
	C239.344,149.522,239.883,153.147,237.984,155.714z"/>
</svg>
