<?xml version="1.0" encoding="utf-8"?>
<!-- Generator: Adobe Illustrator 16.0.3, SVG Export Plug-In . SVG Version: 6.00 Build 0)  -->
<!DOCTYPE svg PUBLIC "-//W3C//DTD SVG 1.1//EN" "http://www.w3.org/Graphics/SVG/1.1/DTD/svg11.dtd">
<svg version="1.1" id="Layer_1" xmlns="http://www.w3.org/2000/svg" xmlns:xlink="http://www.w3.org/1999/xlink" x="0px" y="0px"
	 width="70px" height="70px" viewBox="0 0 70 70" enable-background="new 0 0 70 70" xml:space="preserve">
<path id="facebook" d="M49.8,13.9c-1.9-0.4-4.4-0.7-6.1-0.7c-4.3,0-4.6,1.9-4.6,4.9v5.3H50l-0.9,11h-9.9V68H25.5V34.4h-7v-11h7v-6.8
	C25.5,7.2,29.9,2,41.1,2c3.9,0,6.7,0.6,10.4,1.3L49.8,13.9z"/>
</svg>
