<?xml version="1.0" encoding="utf-8"?>
<!-- Generator: Adobe Illustrator 16.0.3, SVG Export Plug-In . SVG Version: 6.00 Build 0)  -->
<!DOCTYPE svg PUBLIC "-//W3C//DTD SVG 1.1//EN" "http://www.w3.org/Graphics/SVG/1.1/DTD/svg11.dtd">
<svg version="1.1" id="Layer_1" xmlns="http://www.w3.org/2000/svg" xmlns:xlink="http://www.w3.org/1999/xlink" x="0px" y="0px"
	 width="70px" height="70px" viewBox="0 0 70 70" enable-background="new 0 0 70 70" xml:space="preserve">
<path id="instagram" d="M48.1,22.7c-3.1-3.3-7.6-5.2-13.1-5.3c-0.2,0-0.3,0-0.5,0c-4.6,0-8.9,1.9-12.1,5.2c-3.2,3.3-5,7.7-5,12.3
	c0,9.7,7.8,17.5,17.5,17.5c4.7,0,9-1.8,12.3-5.1c3.2-3.3,5.1-7.6,5.2-12.3C52.6,30.1,51.1,25.8,48.1,22.7z M35,46.5
	c-6.4,0-11.6-5.2-11.6-11.6c0-6.4,5-11.6,11.2-11.6c0.1,0,0.2,0,0.3,0c7.5,0.2,11.8,4.5,11.7,11.6C46.4,41.4,41.4,46.5,35,46.5z
	 M52.9,21c-2.3,0-4.1-1.8-4.1-4.1c0-2.3,1.8-4.1,4.1-4.1c2.2,0,4.1,1.8,4.1,4.1C57,19.1,55.1,21,52.9,21z M48.2,2H21.8
	C11.4,2,3,10.5,3,20.9v28.3C3,59.5,11.4,68,21.8,68h26.4C58.6,68,67,59.5,67,49.1V20.9C67,10.5,58.6,2,48.2,2z M62.2,49.1
	c0,7.7-6.3,14-14,14H21.8c-7.7,0-14-6.3-14-14V20.9c0-7.7,6.3-14,14-14h26.4c7.7,0,14,6.3,14,14V49.1z"/>
</svg>
