<?xml version="1.0" encoding="utf-8"?>
<!-- Generator: Adobe Illustrator 16.0.3, SVG Export Plug-In . SVG Version: 6.00 Build 0)  -->
<!DOCTYPE svg PUBLIC "-//W3C//DTD SVG 1.1//EN" "http://www.w3.org/Graphics/SVG/1.1/DTD/svg11.dtd">
<svg version="1.1" id="Layer_1" xmlns="http://www.w3.org/2000/svg" xmlns:xlink="http://www.w3.org/1999/xlink" x="0px" y="0px"
	 width="70px" height="70px" viewBox="0 0 70 70" enable-background="new 0 0 70 70" xml:space="preserve">
<path id="mail-circle" d="M35,2C16.8,2,2,16.8,2,35s14.8,33,33,33s33-14.8,33-33S53.2,2,35,2z M52.2,44.7c0,1.8-1.4,3.2-3.2,3.2
	H21.1c-1.8,0-3.2-1.4-3.2-3.2V31c0-0.3,0.4-0.5,0.7-0.3c1.5,1.2,3.5,2.6,10.3,7.6c1.4,1,3.8,3.2,6.2,3.2c2.4,0,4.8-2.2,6.2-3.2
	c6.8-5,8.8-6.5,10.3-7.6c0.3-0.2,0.7,0,0.7,0.3V44.7z M52.2,26.6c0,0.5-0.2,1-0.6,1.3c-2.1,1.6-2.7,2.2-11.6,8.6
	c-1.1,0.8-3.4,2.8-4.9,2.8c-1.6,0-3.8-2-4.9-2.8c-8.9-6.5-9.6-7-11.6-8.6c-0.4-0.3-0.6-0.8-0.6-1.3v-1.3c0-1.8,1.4-3.2,3.2-3.2h27.9
	c1.8,0,3.2,1.4,3.2,3.2V26.6z"/>
</svg>
