<?xml version="1.0" encoding="utf-8"?>
<!-- Generator: Adobe Illustrator 16.0.3, SVG Export Plug-In . SVG Version: 6.00 Build 0)  -->
<!DOCTYPE svg PUBLIC "-//W3C//DTD SVG 1.1//EN" "http://www.w3.org/Graphics/SVG/1.1/DTD/svg11.dtd">
<svg version="1.1" id="Layer_1" xmlns="http://www.w3.org/2000/svg" xmlns:xlink="http://www.w3.org/1999/xlink" x="0px" y="0px"
	 width="70px" height="70px" viewBox="0 0 70 70" enable-background="new 0 0 70 70" xml:space="preserve">
<path id="map-pin-circle" d="M35,17.3c-7.7,0-14,6.3-14,14c0,10.5,14,26,14,26s14-15.5,14-26C49,23.6,42.7,17.3,35,17.3z M35,36.3
	c-2.8,0-5-2.2-5-5s2.2-5,5-5s5,2.2,5,5S37.8,36.3,35,36.3z M35,68C16.8,68,2,53.2,2,35S16.8,2,35,2s33,14.8,33,33S53.2,68,35,68z"/>
</svg>
